{
  "evaluation_id":"1917696",
  "leaderboard_entity":"syn2223005",
  "leaderboard_wiki_id":59540,
  "observed":"data/ToxSubchallenge_2_Test_Submission_File_Format.txt",
  "scoring_folder_id":"syn2223005",
  "validate_only":true
}
